[
  {
    "objectCode":"SWORD",
    "name":"A Sword",
    "picture": "/images/sword.jpg"
  },
  {
    "objectCode":"MONEY",
    "name":"A bag of money",
    "picture": "/images/money.jpg"
  },
  {
    "objectCode":"STAFF",
    "name":"A Magical Staff",
    "picture": "/images/staff.jpg"
  }
]